<?xml version="1.0"?>
<gpx version="1.0"
creator="Viking 1.7 -- http://viking.sf.net/"
xmlns:xsi="http://www.w3.org/2001/XMLSchema-instance"
xmlns="http://www.topografix.com/GPX/1/0"
xsi:schemaLocation="http://www.topografix.com/GPX/1/0 http://www.topografix.com/GPX/1/0/gpx.xsd">
<trk>
  <name>2017-01-27#3</name>
  <trkseg>
  <trkpt lat="48.1271165" lon="-1.6288835">
    <ele>105</ele>
    <time>2017-01-27T16:21:50Z</time>
  </trkpt>
  <trkpt lat="48.1270333" lon="-1.6288093">
    <ele>106</ele>
    <time>2017-01-27T16:21:52Z</time>
  </trkpt>
  <trkpt lat="48.1269424" lon="-1.6287548">
    <ele>106</ele>
    <time>2017-01-27T16:21:54Z</time>
  </trkpt>
  <trkpt lat="48.1268106" lon="-1.6286947">
    <ele>106</ele>
    <time>2017-01-27T16:21:57Z</time>
  </trkpt>
  <trkpt lat="48.1266907" lon="-1.628628">
    <ele>106</ele>
    <time>2017-01-27T16:22:00Z</time>
  </trkpt>
  <trkpt lat="48.1266005" lon="-1.628575">
    <ele>106</ele>
    <time>2017-01-27T16:22:02Z</time>
  </trkpt>
  <trkpt lat="48.1264905" lon="-1.6285182">
    <ele>107</ele>
    <time>2017-01-27T16:22:05Z</time>
  </trkpt>
  <trkpt lat="48.1264071" lon="-1.6284714">
    <ele>107</ele>
    <time>2017-01-27T16:22:07Z</time>
  </trkpt>
  <trkpt lat="48.1263263" lon="-1.6284384">
    <ele>106</ele>
    <time>2017-01-27T16:22:09Z</time>
  </trkpt>
  <trkpt lat="48.1262424" lon="-1.6284058">
    <ele>106</ele>
    <time>2017-01-27T16:22:11Z</time>
  </trkpt>
  <trkpt lat="48.126134" lon="-1.6283446">
    <ele>107</ele>
    <time>2017-01-27T16:22:14Z</time>
  </trkpt>
  <trkpt lat="48.1260126" lon="-1.62828">
    <ele>108</ele>
    <time>2017-01-27T16:22:17Z</time>
  </trkpt>
  <trkpt lat="48.125931" lon="-1.6282426">
    <ele>108</ele>
    <time>2017-01-27T16:22:19Z</time>
  </trkpt>
  <trkpt lat="48.1258155" lon="-1.6281846">
    <ele>108</ele>
    <time>2017-01-27T16:22:22Z</time>
  </trkpt>
  <trkpt lat="48.1257068" lon="-1.6281243">
    <ele>110</ele>
    <time>2017-01-27T16:22:25Z</time>
  </trkpt>
  <trkpt lat="48.125592" lon="-1.6280761">
    <ele>110</ele>
    <time>2017-01-27T16:22:28Z</time>
  </trkpt>
  <trkpt lat="48.1255135" lon="-1.6280463">
    <ele>111</ele>
    <time>2017-01-27T16:22:30Z</time>
  </trkpt>
  <trkpt lat="48.1254023" lon="-1.6280022">
    <ele>112</ele>
    <time>2017-01-27T16:22:33Z</time>
  </trkpt>
  <trkpt lat="48.125281" lon="-1.627974">
    <ele>114</ele>
    <time>2017-01-27T16:22:36Z</time>
  </trkpt>
  <trkpt lat="48.1252072" lon="-1.6279573">
    <ele>114</ele>
    <time>2017-01-27T16:22:38Z</time>
  </trkpt>
  <trkpt lat="48.1250952" lon="-1.6279399">
    <ele>116</ele>
    <time>2017-01-27T16:22:41Z</time>
  </trkpt>
  <trkpt lat="48.125007" lon="-1.6279453">
    <ele>116</ele>
    <time>2017-01-27T16:22:43Z</time>
  </trkpt>
  <trkpt lat="48.1248937" lon="-1.627955">
    <ele>116</ele>
    <time>2017-01-27T16:22:46Z</time>
  </trkpt>
  <trkpt lat="48.124805" lon="-1.6279779">
    <ele>117</ele>
    <time>2017-01-27T16:22:48Z</time>
  </trkpt>
  <trkpt lat="48.1247341" lon="-1.6280028">
    <ele>118</ele>
    <time>2017-01-27T16:22:50Z</time>
  </trkpt>
  <trkpt lat="48.1245974" lon="-1.6280642">
    <ele>117</ele>
    <time>2017-01-27T16:22:53Z</time>
  </trkpt>
  <trkpt lat="48.1245158" lon="-1.6280989">
    <ele>118</ele>
    <time>2017-01-27T16:22:55Z</time>
  </trkpt>
  <trkpt lat="48.1243873" lon="-1.6281595">
    <ele>119</ele>
    <time>2017-01-27T16:22:58Z</time>
  </trkpt>
  <trkpt lat="48.1242728" lon="-1.6282191">
    <ele>119</ele>
    <time>2017-01-27T16:23:01Z</time>
  </trkpt>
  <trkpt lat="48.1241336" lon="-1.6282791">
    <ele>120</ele>
    <time>2017-01-27T16:23:04Z</time>
  </trkpt>
  <trkpt lat="48.1240431" lon="-1.6283181">
    <ele>120</ele>
    <time>2017-01-27T16:23:06Z</time>
  </trkpt>
  <trkpt lat="48.123907" lon="-1.6283927">
    <ele>118</ele>
    <time>2017-01-27T16:23:09Z</time>
  </trkpt>
  <trkpt lat="48.1238165" lon="-1.6284298">
    <ele>117</ele>
    <time>2017-01-27T16:23:11Z</time>
  </trkpt>
  <trkpt lat="48.1236721" lon="-1.6284946">
    <ele>118</ele>
    <time>2017-01-27T16:23:14Z</time>
  </trkpt>
  <trkpt lat="48.1235073" lon="-1.6285383">
    <ele>117</ele>
    <time>2017-01-27T16:23:17Z</time>
  </trkpt>
  <trkpt lat="48.1233413" lon="-1.6285626">
    <ele>117</ele>
    <time>2017-01-27T16:23:20Z</time>
  </trkpt>
  <trkpt lat="48.1232331" lon="-1.6285567">
    <ele>116</ele>
    <time>2017-01-27T16:23:22Z</time>
  </trkpt>
  <trkpt lat="48.1230789" lon="-1.6285267">
    <ele>116</ele>
    <time>2017-01-27T16:23:25Z</time>
  </trkpt>
  <trkpt lat="48.1229755" lon="-1.6285172">
    <ele>115</ele>
    <time>2017-01-27T16:23:27Z</time>
  </trkpt>
  <trkpt lat="48.122791" lon="-1.6285127">
    <ele>114</ele>
    <time>2017-01-27T16:23:30Z</time>
  </trkpt>
  <trkpt lat="48.1226605" lon="-1.6285392">
    <ele>115</ele>
    <time>2017-01-27T16:23:32Z</time>
  </trkpt>
  <trkpt lat="48.1225144" lon="-1.6285882">
    <ele>115</ele>
    <time>2017-01-27T16:23:34Z</time>
  </trkpt>
  <trkpt lat="48.1223715" lon="-1.6286398">
    <ele>116</ele>
    <time>2017-01-27T16:23:36Z</time>
  </trkpt>
  <trkpt lat="48.1221448" lon="-1.6287863">
    <ele>116</ele>
    <time>2017-01-27T16:23:39Z</time>
  </trkpt>
  <trkpt lat="48.1220213" lon="-1.628893">
    <ele>112</ele>
    <time>2017-01-27T16:23:41Z</time>
  </trkpt>
  <trkpt lat="48.1218203" lon="-1.6291828">
    <ele>110</ele>
    <time>2017-01-27T16:23:44Z</time>
  </trkpt>
  <trkpt lat="48.1216365" lon="-1.6295711">
    <ele>105</ele>
    <time>2017-01-27T16:23:47Z</time>
  </trkpt>
  <trkpt lat="48.121518" lon="-1.6298263">
    <ele>103</ele>
    <time>2017-01-27T16:23:49Z</time>
  </trkpt>
  <trkpt lat="48.121352" lon="-1.6301963">
    <ele>102</ele>
    <time>2017-01-27T16:23:52Z</time>
  </trkpt>
  <trkpt lat="48.1212047" lon="-1.630442">
    <ele>102</ele>
    <time>2017-01-27T16:23:54Z</time>
  </trkpt>
  <trkpt lat="48.1210728" lon="-1.6306317">
    <ele>100</ele>
    <time>2017-01-27T16:23:56Z</time>
  </trkpt>
  <trkpt lat="48.1208463" lon="-1.6309004">
    <ele>99</ele>
    <time>2017-01-27T16:23:59Z</time>
  </trkpt>
  <trkpt lat="48.1206986" lon="-1.6310536">
    <ele>98</ele>
    <time>2017-01-27T16:24:01Z</time>
  </trkpt>
  <trkpt lat="48.1205257" lon="-1.6311845">
    <ele>99</ele>
    <time>2017-01-27T16:24:03Z</time>
  </trkpt>
  <trkpt lat="48.1203395" lon="-1.6313057">
    <ele>100</ele>
    <time>2017-01-27T16:24:05Z</time>
  </trkpt>
  <trkpt lat="48.1200893" lon="-1.6314346">
    <ele>101</ele>
    <time>2017-01-27T16:24:08Z</time>
  </trkpt>
  <trkpt lat="48.1198254" lon="-1.6315007">
    <ele>100</ele>
    <time>2017-01-27T16:24:11Z</time>
  </trkpt>
  <trkpt lat="48.1195772" lon="-1.6315404">
    <ele>99</ele>
    <time>2017-01-27T16:24:14Z</time>
  </trkpt>
  <trkpt lat="48.1193191" lon="-1.6315576">
    <ele>100</ele>
    <time>2017-01-27T16:24:17Z</time>
  </trkpt>
  <trkpt lat="48.1191582" lon="-1.631563">
    <ele>98</ele>
    <time>2017-01-27T16:24:19Z</time>
  </trkpt>
  <trkpt lat="48.1190117" lon="-1.6315922">
    <ele>98</ele>
    <time>2017-01-27T16:24:21Z</time>
  </trkpt>
  <trkpt lat="48.118784" lon="-1.6316473">
    <ele>98</ele>
    <time>2017-01-27T16:24:24Z</time>
  </trkpt>
  <trkpt lat="48.1186448" lon="-1.6317085">
    <ele>99</ele>
    <time>2017-01-27T16:24:26Z</time>
  </trkpt>
  <trkpt lat="48.1184292" lon="-1.6318064">
    <ele>98</ele>
    <time>2017-01-27T16:24:29Z</time>
  </trkpt>
  <trkpt lat="48.1183019" lon="-1.6318894">
    <ele>98</ele>
    <time>2017-01-27T16:24:31Z</time>
  </trkpt>
  <trkpt lat="48.1180996" lon="-1.6319883">
    <ele>99</ele>
    <time>2017-01-27T16:24:34Z</time>
  </trkpt>
  <trkpt lat="48.1179724" lon="-1.6320428">
    <ele>100</ele>
    <time>2017-01-27T16:24:36Z</time>
  </trkpt>
  <trkpt lat="48.1178048" lon="-1.6321203">
    <ele>100</ele>
    <time>2017-01-27T16:24:39Z</time>
  </trkpt>
  <trkpt lat="48.1176628" lon="-1.6321919">
    <ele>100</ele>
    <time>2017-01-27T16:24:41Z</time>
  </trkpt>
  <trkpt lat="48.1174309" lon="-1.6323054">
    <ele>99</ele>
    <time>2017-01-27T16:24:44Z</time>
  </trkpt>
  <trkpt lat="48.1172045" lon="-1.6323926">
    <ele>100</ele>
    <time>2017-01-27T16:24:47Z</time>
  </trkpt>
  <trkpt lat="48.1170471" lon="-1.632473">
    <ele>101</ele>
    <time>2017-01-27T16:24:49Z</time>
  </trkpt>
  <trkpt lat="48.1168098" lon="-1.6325891">
    <ele>101</ele>
    <time>2017-01-27T16:24:52Z</time>
  </trkpt>
  <trkpt lat="48.1165755" lon="-1.6327122">
    <ele>98</ele>
    <time>2017-01-27T16:24:55Z</time>
  </trkpt>
  <trkpt lat="48.11644" lon="-1.6327841">
    <ele>98</ele>
    <time>2017-01-27T16:24:57Z</time>
  </trkpt>
  <trkpt lat="48.1162148" lon="-1.6328892">
    <ele>102</ele>
    <time>2017-01-27T16:25:00Z</time>
  </trkpt>
  <trkpt lat="48.1159765" lon="-1.6330142">
    <ele>100</ele>
    <time>2017-01-27T16:25:03Z</time>
  </trkpt>
  <trkpt lat="48.1157257" lon="-1.6331476">
    <ele>97</ele>
    <time>2017-01-27T16:25:06Z</time>
  </trkpt>
  <trkpt lat="48.1155716" lon="-1.6332384">
    <ele>99</ele>
    <time>2017-01-27T16:25:08Z</time>
  </trkpt>
  <trkpt lat="48.1153114" lon="-1.6333427">
    <ele>96</ele>
    <time>2017-01-27T16:25:11Z</time>
  </trkpt>
  <trkpt lat="48.1150369" lon="-1.6334541">
    <ele>94</ele>
    <time>2017-01-27T16:25:14Z</time>
  </trkpt>
  <trkpt lat="48.1147737" lon="-1.6336065">
    <ele>92</ele>
    <time>2017-01-27T16:25:17Z</time>
  </trkpt>
  <trkpt lat="48.1145201" lon="-1.6337102">
    <ele>93</ele>
    <time>2017-01-27T16:25:20Z</time>
  </trkpt>
  <trkpt lat="48.1142709" lon="-1.6339191">
    <ele>86</ele>
    <time>2017-01-27T16:25:23Z</time>
  </trkpt>
  <trkpt lat="48.1141559" lon="-1.6341975">
    <ele>84</ele>
    <time>2017-01-27T16:25:26Z</time>
  </trkpt>
  <trkpt lat="48.114146" lon="-1.6345647">
    <ele>84</ele>
    <time>2017-01-27T16:25:29Z</time>
  </trkpt>
  <trkpt lat="48.114148900000004" lon="-1.634817">
    <ele>83</ele>
    <time>2017-01-27T16:25:31Z</time>
  </trkpt>
  <trkpt lat="48.1141422" lon="-1.6351925">
    <ele>84</ele>
    <time>2017-01-27T16:25:34Z</time>
  </trkpt>
  <trkpt lat="48.1141545" lon="-1.635428">
    <ele>83</ele>
    <time>2017-01-27T16:25:36Z</time>
  </trkpt>
  <trkpt lat="48.1141646" lon="-1.6357932">
    <ele>81</ele>
    <time>2017-01-27T16:25:39Z</time>
  </trkpt>
  <trkpt lat="48.1141738" lon="-1.6360231">
    <ele>80</ele>
    <time>2017-01-27T16:25:41Z</time>
  </trkpt>
  <trkpt lat="48.114176" lon="-1.636256">
    <ele>79</ele>
    <time>2017-01-27T16:25:43Z</time>
  </trkpt>
  <trkpt lat="48.1141797" lon="-1.6364786">
    <ele>78</ele>
    <time>2017-01-27T16:25:46Z</time>
  </trkpt>
  <trkpt lat="48.1142074" lon="-1.6365192">
    <ele>78</ele>
    <time>2017-01-27T16:25:49Z</time>
  </trkpt>
  <trkpt lat="48.1142" lon="-1.6365274">
    <ele>77</ele>
    <time>2017-01-27T16:25:52Z</time>
  </trkpt>
  <trkpt lat="48.1141958" lon="-1.6365294">
    <ele>77</ele>
    <time>2017-01-27T16:25:54Z</time>
  </trkpt>
  <trkpt lat="48.1141873" lon="-1.6365321">
    <ele>76</ele>
    <time>2017-01-27T16:25:57Z</time>
  </trkpt>
  <trkpt lat="48.1141864" lon="-1.6365323">
    <ele>76</ele>
    <time>2017-01-27T16:26:00Z</time>
  </trkpt>
  <trkpt lat="48.1141861" lon="-1.6365328">
    <ele>76</ele>
    <time>2017-01-27T16:26:02Z</time>
  </trkpt>
  <trkpt lat="48.1141861" lon="-1.6365328">
    <ele>76</ele>
    <time>2017-01-27T16:26:05Z</time>
  </trkpt>
  <trkpt lat="48.114186" lon="-1.6365329">
    <ele>76</ele>
    <time>2017-01-27T16:26:08Z</time>
  </trkpt>
  <trkpt lat="48.114186" lon="-1.636533">
    <ele>76</ele>
    <time>2017-01-27T16:26:10Z</time>
  </trkpt>
  <trkpt lat="48.114186" lon="-1.6365331">
    <ele>76</ele>
    <time>2017-01-27T16:26:13Z</time>
  </trkpt>
  <trkpt lat="48.114186" lon="-1.6365333">
    <ele>76</ele>
    <time>2017-01-27T16:26:16Z</time>
  </trkpt>
  <trkpt lat="48.114186" lon="-1.6365335">
    <ele>76</ele>
    <time>2017-01-27T16:26:18Z</time>
  </trkpt>
  <trkpt lat="48.1141862" lon="-1.6365336">
    <ele>76</ele>
    <time>2017-01-27T16:26:20Z</time>
  </trkpt>
  <trkpt lat="48.1141862" lon="-1.6365337">
    <ele>76</ele>
    <time>2017-01-27T16:26:23Z</time>
  </trkpt>
  <trkpt lat="48.1141862" lon="-1.6365337">
    <ele>76</ele>
    <time>2017-01-27T16:26:26Z</time>
  </trkpt>
  <trkpt lat="48.1141863" lon="-1.6365336">
    <ele>76</ele>
    <time>2017-01-27T16:26:29Z</time>
  </trkpt>
  <trkpt lat="48.1141862" lon="-1.6365336">
    <ele>76</ele>
    <time>2017-01-27T16:26:31Z</time>
  </trkpt>
  <trkpt lat="48.1141893" lon="-1.6365857">
    <ele>76</ele>
    <time>2017-01-27T16:26:34Z</time>
  </trkpt>
  <trkpt lat="48.1141869" lon="-1.6366978">
    <ele>76</ele>
    <time>2017-01-27T16:26:36Z</time>
  </trkpt>
  <trkpt lat="48.1141744" lon="-1.636933">
    <ele>75</ele>
    <time>2017-01-27T16:26:39Z</time>
  </trkpt>
  <trkpt lat="48.1141545" lon="-1.6372422">
    <ele>75</ele>
    <time>2017-01-27T16:26:42Z</time>
  </trkpt>
  <trkpt lat="48.1141532" lon="-1.6375563">
    <ele>74</ele>
    <time>2017-01-27T16:26:45Z</time>
  </trkpt>
  <trkpt lat="48.11415" lon="-1.6377733">
    <ele>75</ele>
    <time>2017-01-27T16:26:47Z</time>
  </trkpt>
  <trkpt lat="48.1141416" lon="-1.6379946">
    <ele>76</ele>
    <time>2017-01-27T16:26:49Z</time>
  </trkpt>
  <trkpt lat="48.114138" lon="-1.6383218">
    <ele>76</ele>
    <time>2017-01-27T16:26:52Z</time>
  </trkpt>
  <trkpt lat="48.1141405" lon="-1.6385461">
    <ele>76</ele>
    <time>2017-01-27T16:26:54Z</time>
  </trkpt>
  <trkpt lat="48.1141464" lon="-1.638888">
    <ele>77</ele>
    <time>2017-01-27T16:26:57Z</time>
  </trkpt>
  <trkpt lat="48.1141461" lon="-1.6390897">
    <ele>77</ele>
    <time>2017-01-27T16:26:59Z</time>
  </trkpt>
  <trkpt lat="48.1141446" lon="-1.639254">
    <ele>77</ele>
    <time>2017-01-27T16:27:01Z</time>
  </trkpt>
  <trkpt lat="48.1141359" lon="-1.6394006">
    <ele>76</ele>
    <time>2017-01-27T16:27:04Z</time>
  </trkpt>
  <trkpt lat="48.1141369" lon="-1.6394816">
    <ele>75</ele>
    <time>2017-01-27T16:27:07Z</time>
  </trkpt>
  <trkpt lat="48.114134" lon="-1.639496">
    <ele>75</ele>
    <time>2017-01-27T16:27:09Z</time>
  </trkpt>
  <trkpt lat="48.1141384" lon="-1.6394916">
    <ele>76</ele>
    <time>2017-01-27T16:27:11Z</time>
  </trkpt>
  <trkpt lat="48.1141409" lon="-1.6395119">
    <ele>76</ele>
    <time>2017-01-27T16:27:13Z</time>
  </trkpt>
  <trkpt lat="48.1141378" lon="-1.6395966">
    <ele>77</ele>
    <time>2017-01-27T16:27:15Z</time>
  </trkpt>
  <trkpt lat="48.1141285" lon="-1.6398139">
    <ele>77</ele>
    <time>2017-01-27T16:27:18Z</time>
  </trkpt>
  <trkpt lat="48.1141292" lon="-1.6400049">
    <ele>77</ele>
    <time>2017-01-27T16:27:20Z</time>
  </trkpt>
  <trkpt lat="48.1141284" lon="-1.6402067">
    <ele>77</ele>
    <time>2017-01-27T16:27:22Z</time>
  </trkpt>
  <trkpt lat="48.1141236" lon="-1.6405124">
    <ele>77</ele>
    <time>2017-01-27T16:27:25Z</time>
  </trkpt>
  <trkpt lat="48.1141143" lon="-1.6407113">
    <ele>78</ele>
    <time>2017-01-27T16:27:27Z</time>
  </trkpt>
  <trkpt lat="48.114047" lon="-1.6409646">
    <ele>78</ele>
    <time>2017-01-27T16:27:30Z</time>
  </trkpt>
  <trkpt lat="48.1140042" lon="-1.6410928">
    <ele>77</ele>
    <time>2017-01-27T16:27:32Z</time>
  </trkpt>
  <trkpt lat="48.1139276" lon="-1.6411122">
    <ele>76</ele>
    <time>2017-01-27T16:27:34Z</time>
  </trkpt>
  <trkpt lat="48.1138069" lon="-1.6411351">
    <ele>77</ele>
    <time>2017-01-27T16:27:37Z</time>
  </trkpt>
  <trkpt lat="48.1136465" lon="-1.6412056">
    <ele>78</ele>
    <time>2017-01-27T16:27:40Z</time>
  </trkpt>
  <trkpt lat="48.1135521" lon="-1.64125">
    <ele>78</ele>
    <time>2017-01-27T16:27:42Z</time>
  </trkpt>
  <trkpt lat="48.1134258" lon="-1.6412993">
    <ele>80</ele>
    <time>2017-01-27T16:27:44Z</time>
  </trkpt>
  <trkpt lat="48.1132967" lon="-1.6413607">
    <ele>80</ele>
    <time>2017-01-27T16:27:46Z</time>
  </trkpt>
  <trkpt lat="48.1130926" lon="-1.6414455">
    <ele>82</ele>
    <time>2017-01-27T16:27:49Z</time>
  </trkpt>
  <trkpt lat="48.1129732" lon="-1.6414911">
    <ele>82</ele>
    <time>2017-01-27T16:27:51Z</time>
  </trkpt>
  <trkpt lat="48.1128804" lon="-1.6416569">
    <ele>81</ele>
    <time>2017-01-27T16:27:54Z</time>
  </trkpt>
  <trkpt lat="48.112863" lon="-1.641952">
    <ele>81</ele>
    <time>2017-01-27T16:27:57Z</time>
  </trkpt>
  <trkpt lat="48.1128068" lon="-1.6422544">
    <ele>80</ele>
    <time>2017-01-27T16:28:00Z</time>
  </trkpt>
  <trkpt lat="48.1127418" lon="-1.6425579">
    <ele>80</ele>
    <time>2017-01-27T16:28:03Z</time>
  </trkpt>
  <trkpt lat="48.1126813" lon="-1.6428654">
    <ele>79</ele>
    <time>2017-01-27T16:28:06Z</time>
  </trkpt>
  <trkpt lat="48.1126227" lon="-1.643187">
    <ele>77</ele>
    <time>2017-01-27T16:28:09Z</time>
  </trkpt>
  <trkpt lat="48.1125336" lon="-1.6435005">
    <ele>80</ele>
    <time>2017-01-27T16:28:12Z</time>
  </trkpt>
  <trkpt lat="48.1124608" lon="-1.6437069">
    <ele>80</ele>
    <time>2017-01-27T16:28:14Z</time>
  </trkpt>
  <trkpt lat="48.1123767" lon="-1.6440226">
    <ele>80</ele>
    <time>2017-01-27T16:28:17Z</time>
  </trkpt>
  <trkpt lat="48.1123006" lon="-1.6443423">
    <ele>79</ele>
    <time>2017-01-27T16:28:20Z</time>
  </trkpt>
  <trkpt lat="48.112232" lon="-1.6446506">
    <ele>78</ele>
    <time>2017-01-27T16:28:23Z</time>
  </trkpt>
  <trkpt lat="48.1121728" lon="-1.6448678">
    <ele>77</ele>
    <time>2017-01-27T16:28:25Z</time>
  </trkpt>
  <trkpt lat="48.1121159" lon="-1.6452028">
    <ele>77</ele>
    <time>2017-01-27T16:28:28Z</time>
  </trkpt>
  <trkpt lat="48.1120757" lon="-1.6454179">
    <ele>79</ele>
    <time>2017-01-27T16:28:30Z</time>
  </trkpt>
  <trkpt lat="48.1120144" lon="-1.6456158">
    <ele>77</ele>
    <time>2017-01-27T16:28:32Z</time>
  </trkpt>
  <trkpt lat="48.1119445" lon="-1.6459086">
    <ele>77</ele>
    <time>2017-01-27T16:28:35Z</time>
  </trkpt>
  <trkpt lat="48.1119239" lon="-1.6461846">
    <ele>77</ele>
    <time>2017-01-27T16:28:38Z</time>
  </trkpt>
  <trkpt lat="48.1119282" lon="-1.646368">
    <ele>75</ele>
    <time>2017-01-27T16:28:40Z</time>
  </trkpt>
  <trkpt lat="48.1118339" lon="-1.6465774">
    <ele>74</ele>
    <time>2017-01-27T16:28:43Z</time>
  </trkpt>
  <trkpt lat="48.1117411" lon="-1.6466316">
    <ele>72</ele>
    <time>2017-01-27T16:28:46Z</time>
  </trkpt>
  <trkpt lat="48.1117412" lon="-1.6466282">
    <ele>72</ele>
    <time>2017-01-27T16:28:48Z</time>
  </trkpt>
  <trkpt lat="48.1117358" lon="-1.6466233">
    <ele>71</ele>
    <time>2017-01-27T16:28:51Z</time>
  </trkpt>
  <trkpt lat="48.1117332" lon="-1.6466244">
    <ele>71</ele>
    <time>2017-01-27T16:28:53Z</time>
  </trkpt>
  <trkpt lat="48.111726" lon="-1.6466247">
    <ele>70</ele>
    <time>2017-01-27T16:28:55Z</time>
  </trkpt>
  <trkpt lat="48.1117245" lon="-1.6466279">
    <ele>70</ele>
    <time>2017-01-27T16:28:58Z</time>
  </trkpt>
  <trkpt lat="48.1117238" lon="-1.6466254">
    <ele>70</ele>
    <time>2017-01-27T16:29:00Z</time>
  </trkpt>
  <trkpt lat="48.1116996" lon="-1.6466055">
    <ele>71</ele>
    <time>2017-01-27T16:29:03Z</time>
  </trkpt>
  <trkpt lat="48.1116537" lon="-1.6465583">
    <ele>71</ele>
    <time>2017-01-27T16:29:05Z</time>
  </trkpt>
  <trkpt lat="48.111583" lon="-1.6464032">
    <ele>70</ele>
    <time>2017-01-27T16:29:08Z</time>
  </trkpt>
  <trkpt lat="48.1115079" lon="-1.6462698">
    <ele>71</ele>
    <time>2017-01-27T16:29:10Z</time>
  </trkpt>
  <trkpt lat="48.1114015" lon="-1.6461977">
    <ele>74</ele>
    <time>2017-01-27T16:29:12Z</time>
  </trkpt>
  <trkpt lat="48.1112318" lon="-1.6461153">
    <ele>73</ele>
    <time>2017-01-27T16:29:15Z</time>
  </trkpt>
  <trkpt lat="48.1111209" lon="-1.6460437">
    <ele>71</ele>
    <time>2017-01-27T16:29:17Z</time>
  </trkpt>
  <trkpt lat="48.1109215" lon="-1.6459379">
    <ele>69</ele>
    <time>2017-01-27T16:29:20Z</time>
  </trkpt>
  <trkpt lat="48.1107846" lon="-1.6459044">
    <ele>70</ele>
    <time>2017-01-27T16:29:22Z</time>
  </trkpt>
  <trkpt lat="48.1106311" lon="-1.6459108">
    <ele>71</ele>
    <time>2017-01-27T16:29:24Z</time>
  </trkpt>
  <trkpt lat="48.1104096" lon="-1.6459355">
    <ele>70</ele>
    <time>2017-01-27T16:29:27Z</time>
  </trkpt>
  <trkpt lat="48.1101851" lon="-1.6459647">
    <ele>71</ele>
    <time>2017-01-27T16:29:30Z</time>
  </trkpt>
  <trkpt lat="48.1100007" lon="-1.6459201">
    <ele>71</ele>
    <time>2017-01-27T16:29:33Z</time>
  </trkpt>
  <trkpt lat="48.1097838" lon="-1.645842">
    <ele>72</ele>
    <time>2017-01-27T16:29:36Z</time>
  </trkpt>
  <trkpt lat="48.1096226" lon="-1.6458342">
    <ele>70</ele>
    <time>2017-01-27T16:29:38Z</time>
  </trkpt>
  <trkpt lat="48.1094045" lon="-1.6457989">
    <ele>68</ele>
    <time>2017-01-27T16:29:41Z</time>
  </trkpt>
  <trkpt lat="48.1092674" lon="-1.6457756">
    <ele>66</ele>
    <time>2017-01-27T16:29:43Z</time>
  </trkpt>
  <trkpt lat="48.1091479" lon="-1.645736">
    <ele>66</ele>
    <time>2017-01-27T16:29:45Z</time>
  </trkpt>
  <trkpt lat="48.1089781" lon="-1.6457084">
    <ele>67</ele>
    <time>2017-01-27T16:29:48Z</time>
  </trkpt>
  <trkpt lat="48.1087995" lon="-1.6456773">
    <ele>66</ele>
    <time>2017-01-27T16:29:51Z</time>
  </trkpt>
  <trkpt lat="48.1086774" lon="-1.6456489">
    <ele>66</ele>
    <time>2017-01-27T16:29:53Z</time>
  </trkpt>
  <trkpt lat="48.1084918" lon="-1.6456266">
    <ele>68</ele>
    <time>2017-01-27T16:29:56Z</time>
  </trkpt>
  <trkpt lat="48.1083761" lon="-1.6455948">
    <ele>68</ele>
    <time>2017-01-27T16:29:58Z</time>
  </trkpt>
  <trkpt lat="48.1081795" lon="-1.6455366">
    <ele>66</ele>
    <time>2017-01-27T16:30:01Z</time>
  </trkpt>
  <trkpt lat="48.1080256" lon="-1.6455094">
    <ele>64</ele>
    <time>2017-01-27T16:30:04Z</time>
  </trkpt>
  <trkpt lat="48.1079193" lon="-1.6454811">
    <ele>65</ele>
    <time>2017-01-27T16:30:06Z</time>
  </trkpt>
  <trkpt lat="48.1078412" lon="-1.64544">
    <ele>67</ele>
    <time>2017-01-27T16:30:08Z</time>
  </trkpt>
  <trkpt lat="48.1077346" lon="-1.645419">
    <ele>69</ele>
    <time>2017-01-27T16:30:10Z</time>
  </trkpt>
  <trkpt lat="48.1075844" lon="-1.6453962">
    <ele>68</ele>
    <time>2017-01-27T16:30:13Z</time>
  </trkpt>
  <trkpt lat="48.1075062" lon="-1.6453801">
    <ele>68</ele>
    <time>2017-01-27T16:30:15Z</time>
  </trkpt>
  <trkpt lat="48.1074227" lon="-1.6453752">
    <ele>67</ele>
    <time>2017-01-27T16:30:18Z</time>
  </trkpt>
  <trkpt lat="48.1073751" lon="-1.6454971">
    <ele>68</ele>
    <time>2017-01-27T16:30:21Z</time>
  </trkpt>
  <trkpt lat="48.1073492" lon="-1.6457188">
    <ele>66</ele>
    <time>2017-01-27T16:30:24Z</time>
  </trkpt>
  <trkpt lat="48.1073394" lon="-1.6458936">
    <ele>67</ele>
    <time>2017-01-27T16:30:26Z</time>
  </trkpt>
  <trkpt lat="48.1073016" lon="-1.6461677">
    <ele>69</ele>
    <time>2017-01-27T16:30:29Z</time>
  </trkpt>
  <trkpt lat="48.1072697" lon="-1.6463726">
    <ele>69</ele>
    <time>2017-01-27T16:30:31Z</time>
  </trkpt>
  <trkpt lat="48.1072433" lon="-1.6467245">
    <ele>69</ele>
    <time>2017-01-27T16:30:34Z</time>
  </trkpt>
  <trkpt lat="48.1072334" lon="-1.6469388">
    <ele>67</ele>
    <time>2017-01-27T16:30:36Z</time>
  </trkpt>
  <trkpt lat="48.1072008" lon="-1.6471595">
    <ele>67</ele>
    <time>2017-01-27T16:30:38Z</time>
  </trkpt>
  <trkpt lat="48.107179" lon="-1.6473921">
    <ele>68</ele>
    <time>2017-01-27T16:30:40Z</time>
  </trkpt>
  <trkpt lat="48.1071456" lon="-1.6477511">
    <ele>66</ele>
    <time>2017-01-27T16:30:43Z</time>
  </trkpt>
  <trkpt lat="48.1071008" lon="-1.6480986">
    <ele>67</ele>
    <time>2017-01-27T16:30:46Z</time>
  </trkpt>
  <trkpt lat="48.1070565" lon="-1.6484422">
    <ele>68</ele>
    <time>2017-01-27T16:30:49Z</time>
  </trkpt>
  <trkpt lat="48.1070373" lon="-1.648776">
    <ele>68</ele>
    <time>2017-01-27T16:30:52Z</time>
  </trkpt>
  <trkpt lat="48.1070145" lon="-1.6489822">
    <ele>68</ele>
    <time>2017-01-27T16:30:54Z</time>
  </trkpt>
  <trkpt lat="48.1069791" lon="-1.6492764">
    <ele>70</ele>
    <time>2017-01-27T16:30:57Z</time>
  </trkpt>
  <trkpt lat="48.1069527" lon="-1.6494832">
    <ele>70</ele>
    <time>2017-01-27T16:30:59Z</time>
  </trkpt>
  <trkpt lat="48.1069092" lon="-1.6497759">
    <ele>70</ele>
    <time>2017-01-27T16:31:02Z</time>
  </trkpt>
  <trkpt lat="48.1068834" lon="-1.6499644">
    <ele>70</ele>
    <time>2017-01-27T16:31:04Z</time>
  </trkpt>
  <trkpt lat="48.1068676" lon="-1.6502378">
    <ele>70</ele>
    <time>2017-01-27T16:31:07Z</time>
  </trkpt>
  <trkpt lat="48.1068413" lon="-1.6503905">
    <ele>70</ele>
    <time>2017-01-27T16:31:09Z</time>
  </trkpt>
  <trkpt lat="48.1068174" lon="-1.6505574">
    <ele>70</ele>
    <time>2017-01-27T16:31:12Z</time>
  </trkpt>
  <trkpt lat="48.1068165" lon="-1.6505951">
    <ele>71</ele>
    <time>2017-01-27T16:31:15Z</time>
  </trkpt>
  <trkpt lat="48.1068167" lon="-1.6506095">
    <ele>70</ele>
    <time>2017-01-27T16:31:18Z</time>
  </trkpt>
  <trkpt lat="48.1068202" lon="-1.6506154">
    <ele>70</ele>
    <time>2017-01-27T16:31:20Z</time>
  </trkpt>
  <trkpt lat="48.1068144" lon="-1.6505941">
    <ele>70</ele>
    <time>2017-01-27T16:31:23Z</time>
  </trkpt>
  <trkpt lat="48.1068085" lon="-1.6505894">
    <ele>70</ele>
    <time>2017-01-27T16:31:25Z</time>
  </trkpt>
  <trkpt lat="48.1068156" lon="-1.6505872">
    <ele>69</ele>
    <time>2017-01-27T16:31:28Z</time>
  </trkpt>
  <trkpt lat="48.1068106" lon="-1.6505847">
    <ele>70</ele>
    <time>2017-01-27T16:31:31Z</time>
  </trkpt>
  <trkpt lat="48.1068016" lon="-1.6505875">
    <ele>70</ele>
    <time>2017-01-27T16:31:33Z</time>
  </trkpt>
  <trkpt lat="48.1068051" lon="-1.6505887">
    <ele>71</ele>
    <time>2017-01-27T16:31:35Z</time>
  </trkpt>
  <trkpt lat="48.1068048" lon="-1.6505729">
    <ele>71</ele>
    <time>2017-01-27T16:31:37Z</time>
  </trkpt>
  <trkpt lat="48.1068025" lon="-1.6505796">
    <ele>69</ele>
    <time>2017-01-27T16:31:40Z</time>
  </trkpt>
  <trkpt lat="48.1068081" lon="-1.6505927">
    <ele>69</ele>
    <time>2017-01-27T16:31:42Z</time>
  </trkpt>
  <trkpt lat="48.1068105" lon="-1.650599">
    <ele>69</ele>
    <time>2017-01-27T16:31:45Z</time>
  </trkpt>
  <trkpt lat="48.1068131" lon="-1.6506035">
    <ele>68</ele>
    <time>2017-01-27T16:31:47Z</time>
  </trkpt>
  <trkpt lat="48.1068171" lon="-1.6506045">
    <ele>68</ele>
    <time>2017-01-27T16:31:50Z</time>
  </trkpt>
  <trkpt lat="48.106816" lon="-1.6505988">
    <ele>69</ele>
    <time>2017-01-27T16:31:52Z</time>
  </trkpt>
  <trkpt lat="48.106815" lon="-1.650597">
    <ele>69</ele>
    <time>2017-01-27T16:31:55Z</time>
  </trkpt>
  <trkpt lat="48.1068116" lon="-1.6505969">
    <ele>70</ele>
    <time>2017-01-27T16:31:58Z</time>
  </trkpt>
  <trkpt lat="48.106812" lon="-1.6505952">
    <ele>71</ele>
    <time>2017-01-27T16:32:00Z</time>
  </trkpt>
  <trkpt lat="48.1068112" lon="-1.6505961">
    <ele>72</ele>
    <time>2017-01-27T16:32:02Z</time>
  </trkpt>
  <trkpt lat="48.1068068" lon="-1.6506122">
    <ele>72</ele>
    <time>2017-01-27T16:32:05Z</time>
  </trkpt>
  <trkpt lat="48.1067744" lon="-1.6507246">
    <ele>74</ele>
    <time>2017-01-27T16:32:08Z</time>
  </trkpt>
  <trkpt lat="48.1066889" lon="-1.6508797">
    <ele>71</ele>
    <time>2017-01-27T16:32:11Z</time>
  </trkpt>
  <trkpt lat="48.1066312" lon="-1.6509048">
    <ele>70</ele>
    <time>2017-01-27T16:32:13Z</time>
  </trkpt>
  <trkpt lat="48.1065575" lon="-1.6508885">
    <ele>71</ele>
    <time>2017-01-27T16:32:15Z</time>
  </trkpt>
  <trkpt lat="48.106411" lon="-1.6508276">
    <ele>71</ele>
    <time>2017-01-27T16:32:18Z</time>
  </trkpt>
  <trkpt lat="48.1062952" lon="-1.6508118">
    <ele>73</ele>
    <time>2017-01-27T16:32:20Z</time>
  </trkpt>
  <trkpt lat="48.1061483" lon="-1.6507826">
    <ele>74</ele>
    <time>2017-01-27T16:32:23Z</time>
  </trkpt>
  <trkpt lat="48.1059892" lon="-1.6507532">
    <ele>74</ele>
    <time>2017-01-27T16:32:25Z</time>
  </trkpt>
  <trkpt lat="48.1057715" lon="-1.6506667">
    <ele>79</ele>
    <time>2017-01-27T16:32:28Z</time>
  </trkpt>
  <trkpt lat="48.105625" lon="-1.6506362">
    <ele>79</ele>
    <time>2017-01-27T16:32:30Z</time>
  </trkpt>
  <trkpt lat="48.1054145" lon="-1.6505609">
    <ele>79</ele>
    <time>2017-01-27T16:32:33Z</time>
  </trkpt>
  <trkpt lat="48.1052662" lon="-1.65052">
    <ele>76</ele>
    <time>2017-01-27T16:32:35Z</time>
  </trkpt>
  <trkpt lat="48.1050996" lon="-1.6504472">
    <ele>82</ele>
    <time>2017-01-27T16:32:38Z</time>
  </trkpt>
  <trkpt lat="48.1049791" lon="-1.6503808">
    <ele>82</ele>
    <time>2017-01-27T16:32:40Z</time>
  </trkpt>
  <trkpt lat="48.1048128" lon="-1.6503652">
    <ele>82</ele>
    <time>2017-01-27T16:32:42Z</time>
  </trkpt>
  <trkpt lat="48.1046862" lon="-1.6503072">
    <ele>83</ele>
    <time>2017-01-27T16:32:44Z</time>
  </trkpt>
  <trkpt lat="48.1044812" lon="-1.6502611">
    <ele>85</ele>
    <time>2017-01-27T16:32:47Z</time>
  </trkpt>
  <trkpt lat="48.104343" lon="-1.6502346">
    <ele>84</ele>
    <time>2017-01-27T16:32:49Z</time>
  </trkpt>
  <trkpt lat="48.1042298" lon="-1.6501971">
    <ele>79</ele>
    <time>2017-01-27T16:32:52Z</time>
  </trkpt>
  <trkpt lat="48.1040992" lon="-1.6501761">
    <ele>76</ele>
    <time>2017-01-27T16:32:55Z</time>
  </trkpt>
  <trkpt lat="48.1039521" lon="-1.650074">
    <ele>75</ele>
    <time>2017-01-27T16:32:58Z</time>
  </trkpt>
  <trkpt lat="48.1038746" lon="-1.6499709">
    <ele>73</ele>
    <time>2017-01-27T16:33:00Z</time>
  </trkpt>
  <trkpt lat="48.1037431" lon="-1.6498042">
    <ele>75</ele>
    <time>2017-01-27T16:33:03Z</time>
  </trkpt>
  <trkpt lat="48.1036517" lon="-1.6496852">
    <ele>74</ele>
    <time>2017-01-27T16:33:05Z</time>
  </trkpt>
  <trkpt lat="48.1035617" lon="-1.6495679">
    <ele>75</ele>
    <time>2017-01-27T16:33:07Z</time>
  </trkpt>
  <trkpt lat="48.1034379" lon="-1.6494051">
    <ele>75</ele>
    <time>2017-01-27T16:33:10Z</time>
  </trkpt>
  <trkpt lat="48.103279" lon="-1.6493401">
    <ele>76</ele>
    <time>2017-01-27T16:33:13Z</time>
  </trkpt>
  <trkpt lat="48.1031647" lon="-1.6493362">
    <ele>76</ele>
    <time>2017-01-27T16:33:15Z</time>
  </trkpt>
  <trkpt lat="48.1029944" lon="-1.6493859">
    <ele>75</ele>
    <time>2017-01-27T16:33:18Z</time>
  </trkpt>
  <trkpt lat="48.1028818" lon="-1.6493922">
    <ele>76</ele>
    <time>2017-01-27T16:33:20Z</time>
  </trkpt>
  <trkpt lat="48.1026932" lon="-1.6494296">
    <ele>77</ele>
    <time>2017-01-27T16:33:23Z</time>
  </trkpt>
  <trkpt lat="48.1025124" lon="-1.6494492">
    <ele>76</ele>
    <time>2017-01-27T16:33:26Z</time>
  </trkpt>
  <trkpt lat="48.102399" lon="-1.6494829">
    <ele>75</ele>
    <time>2017-01-27T16:33:28Z</time>
  </trkpt>
  <trkpt lat="48.1022335" lon="-1.6495171">
    <ele>76</ele>
    <time>2017-01-27T16:33:31Z</time>
  </trkpt>
  <trkpt lat="48.1021321" lon="-1.6495402">
    <ele>74</ele>
    <time>2017-01-27T16:33:33Z</time>
  </trkpt>
  <trkpt lat="48.1019487" lon="-1.6495883">
    <ele>73</ele>
    <time>2017-01-27T16:33:36Z</time>
  </trkpt>
  <trkpt lat="48.1017813" lon="-1.6496027">
    <ele>74</ele>
    <time>2017-01-27T16:33:39Z</time>
  </trkpt>
  <trkpt lat="48.1016098" lon="-1.6496215">
    <ele>77</ele>
    <time>2017-01-27T16:33:42Z</time>
  </trkpt>
  <trkpt lat="48.1014945" lon="-1.6496335">
    <ele>79</ele>
    <time>2017-01-27T16:33:44Z</time>
  </trkpt>
  <trkpt lat="48.1013288" lon="-1.6496778">
    <ele>78</ele>
    <time>2017-01-27T16:33:47Z</time>
  </trkpt>
  <trkpt lat="48.1012262" lon="-1.6496944">
    <ele>77</ele>
    <time>2017-01-27T16:33:49Z</time>
  </trkpt>
  <trkpt lat="48.101065" lon="-1.6497266">
    <ele>81</ele>
    <time>2017-01-27T16:33:52Z</time>
  </trkpt>
  <trkpt lat="48.1009541" lon="-1.649743">
    <ele>81</ele>
    <time>2017-01-27T16:33:54Z</time>
  </trkpt>
  <trkpt lat="48.1007787" lon="-1.6497658">
    <ele>81</ele>
    <time>2017-01-27T16:33:57Z</time>
  </trkpt>
  <trkpt lat="48.1006695" lon="-1.6498212">
    <ele>80</ele>
    <time>2017-01-27T16:33:59Z</time>
  </trkpt>
  <trkpt lat="48.1005296" lon="-1.6499137">
    <ele>83</ele>
    <time>2017-01-27T16:34:02Z</time>
  </trkpt>
  <trkpt lat="48.1004428" lon="-1.6500055">
    <ele>82</ele>
    <time>2017-01-27T16:34:04Z</time>
  </trkpt>
  <trkpt lat="48.1003373" lon="-1.6501346">
    <ele>79</ele>
    <time>2017-01-27T16:34:07Z</time>
  </trkpt>
  <trkpt lat="48.1002438" lon="-1.6503022">
    <ele>79</ele>
    <time>2017-01-27T16:34:10Z</time>
  </trkpt>
  <trkpt lat="48.1001783" lon="-1.6504245">
    <ele>78</ele>
    <time>2017-01-27T16:34:12Z</time>
  </trkpt>
  <trkpt lat="48.1000823" lon="-1.6506175">
    <ele>81</ele>
    <time>2017-01-27T16:34:15Z</time>
  </trkpt>
  <trkpt lat="48.0999815" lon="-1.6507613">
    <ele>84</ele>
    <time>2017-01-27T16:34:18Z</time>
  </trkpt>
  <trkpt lat="48.0998846" lon="-1.6507753">
    <ele>85</ele>
    <time>2017-01-27T16:34:20Z</time>
  </trkpt>
  <trkpt lat="48.0997658" lon="-1.6508007">
    <ele>85</ele>
    <time>2017-01-27T16:34:23Z</time>
  </trkpt>
  <trkpt lat="48.099687" lon="-1.6508419">
    <ele>85</ele>
    <time>2017-01-27T16:34:25Z</time>
  </trkpt>
  <trkpt lat="48.0995764" lon="-1.6509372">
    <ele>84</ele>
    <time>2017-01-27T16:34:28Z</time>
  </trkpt>
  <trkpt lat="48.0994685" lon="-1.6510062">
    <ele>85</ele>
    <time>2017-01-27T16:34:31Z</time>
  </trkpt>
  <trkpt lat="48.0994196" lon="-1.6510798">
    <ele>84</ele>
    <time>2017-01-27T16:34:33Z</time>
  </trkpt>
  <trkpt lat="48.099328" lon="-1.6511432">
    <ele>85</ele>
    <time>2017-01-27T16:34:36Z</time>
  </trkpt>
  <trkpt lat="48.0992548" lon="-1.6512044">
    <ele>86</ele>
    <time>2017-01-27T16:34:38Z</time>
  </trkpt>
  <trkpt lat="48.0991604" lon="-1.6512996">
    <ele>86</ele>
    <time>2017-01-27T16:34:41Z</time>
  </trkpt>
  <trkpt lat="48.0990825" lon="-1.6513497">
    <ele>88</ele>
    <time>2017-01-27T16:34:43Z</time>
  </trkpt>
  <trkpt lat="48.0990102" lon="-1.651382">
    <ele>88</ele>
    <time>2017-01-27T16:34:45Z</time>
  </trkpt>
  <trkpt lat="48.0989385" lon="-1.651435">
    <ele>89</ele>
    <time>2017-01-27T16:34:47Z</time>
  </trkpt>
  <trkpt lat="48.0988552" lon="-1.651536">
    <ele>85</ele>
    <time>2017-01-27T16:34:50Z</time>
  </trkpt>
  <trkpt lat="48.0987822" lon="-1.6515968">
    <ele>84</ele>
    <time>2017-01-27T16:34:52Z</time>
  </trkpt>
  <trkpt lat="48.0986596" lon="-1.6516491">
    <ele>85</ele>
    <time>2017-01-27T16:34:55Z</time>
  </trkpt>
  <trkpt lat="48.0985333" lon="-1.6517241">
    <ele>87</ele>
    <time>2017-01-27T16:34:58Z</time>
  </trkpt>
  <trkpt lat="48.0983929" lon="-1.6517948">
    <ele>88</ele>
    <time>2017-01-27T16:35:01Z</time>
  </trkpt>
  <trkpt lat="48.0982295" lon="-1.6518594">
    <ele>87</ele>
    <time>2017-01-27T16:35:04Z</time>
  </trkpt>
  <trkpt lat="48.0981271" lon="-1.6519279">
    <ele>86</ele>
    <time>2017-01-27T16:35:06Z</time>
  </trkpt>
  <trkpt lat="48.0979885" lon="-1.6519982">
    <ele>89</ele>
    <time>2017-01-27T16:35:09Z</time>
  </trkpt>
  <trkpt lat="48.0978166" lon="-1.6520574">
    <ele>90</ele>
    <time>2017-01-27T16:35:12Z</time>
  </trkpt>
  <trkpt lat="48.0976548" lon="-1.6521271">
    <ele>90</ele>
    <time>2017-01-27T16:35:15Z</time>
  </trkpt>
  <trkpt lat="48.0975558" lon="-1.6521639">
    <ele>91</ele>
    <time>2017-01-27T16:35:17Z</time>
  </trkpt>
  <trkpt lat="48.097461" lon="-1.6522145">
    <ele>91</ele>
    <time>2017-01-27T16:35:19Z</time>
  </trkpt>
  <trkpt lat="48.0973009" lon="-1.6522933">
    <ele>92</ele>
    <time>2017-01-27T16:35:22Z</time>
  </trkpt>
  <trkpt lat="48.0971354" lon="-1.6523786">
    <ele>91</ele>
    <time>2017-01-27T16:35:25Z</time>
  </trkpt>
  <trkpt lat="48.0970359" lon="-1.6524289">
    <ele>91</ele>
    <time>2017-01-27T16:35:27Z</time>
  </trkpt>
  <trkpt lat="48.0968782" lon="-1.652521">
    <ele>91</ele>
    <time>2017-01-27T16:35:30Z</time>
  </trkpt>
  <trkpt lat="48.0967683" lon="-1.6525882">
    <ele>88</ele>
    <time>2017-01-27T16:35:32Z</time>
  </trkpt>
  <trkpt lat="48.0966554" lon="-1.6526522">
    <ele>89</ele>
    <time>2017-01-27T16:35:35Z</time>
  </trkpt>
  <trkpt lat="48.0966203" lon="-1.6527008">
    <ele>89</ele>
    <time>2017-01-27T16:35:37Z</time>
  </trkpt>
  <trkpt lat="48.0965987" lon="-1.6527144">
    <ele>90</ele>
    <time>2017-01-27T16:35:40Z</time>
  </trkpt>
  <trkpt lat="48.0965797" lon="-1.6527267">
    <ele>92</ele>
    <time>2017-01-27T16:35:42Z</time>
  </trkpt>
  <trkpt lat="48.0965773" lon="-1.65273">
    <ele>94</ele>
    <time>2017-01-27T16:35:45Z</time>
  </trkpt>
  <trkpt lat="48.09656" lon="-1.6527395">
    <ele>93</ele>
    <time>2017-01-27T16:35:47Z</time>
  </trkpt>
  <trkpt lat="48.0964708" lon="-1.6526484">
    <ele>94</ele>
    <time>2017-01-27T16:35:50Z</time>
  </trkpt>
  <trkpt lat="48.0963964" lon="-1.6524884">
    <ele>95</ele>
    <time>2017-01-27T16:35:53Z</time>
  </trkpt>
  <trkpt lat="48.0963333" lon="-1.6523894">
    <ele>94</ele>
    <time>2017-01-27T16:35:55Z</time>
  </trkpt>
  <trkpt lat="48.096245" lon="-1.6522443">
    <ele>94</ele>
    <time>2017-01-27T16:35:58Z</time>
  </trkpt>
  <trkpt lat="48.0961912" lon="-1.6521437">
    <ele>94</ele>
    <time>2017-01-27T16:36:00Z</time>
  </trkpt>
  <trkpt lat="48.0961214" lon="-1.6520402">
    <ele>94</ele>
    <time>2017-01-27T16:36:02Z</time>
  </trkpt>
  <trkpt lat="48.0960353" lon="-1.6518769">
    <ele>96</ele>
    <time>2017-01-27T16:36:05Z</time>
  </trkpt>
  <trkpt lat="48.0959604" lon="-1.6517158">
    <ele>96</ele>
    <time>2017-01-27T16:36:08Z</time>
  </trkpt>
  <trkpt lat="48.095875" lon="-1.6515488">
    <ele>96</ele>
    <time>2017-01-27T16:36:11Z</time>
  </trkpt>
  <trkpt lat="48.0958295" lon="-1.6514396">
    <ele>96</ele>
    <time>2017-01-27T16:36:13Z</time>
  </trkpt>
  <trkpt lat="48.0957296" lon="-1.6512969">
    <ele>96</ele>
    <time>2017-01-27T16:36:16Z</time>
  </trkpt>
  <trkpt lat="48.0956736" lon="-1.6511906">
    <ele>96</ele>
    <time>2017-01-27T16:36:18Z</time>
  </trkpt>
  <trkpt lat="48.0956163" lon="-1.6510829">
    <ele>99</ele>
    <time>2017-01-27T16:36:20Z</time>
  </trkpt>
  <trkpt lat="48.095527" lon="-1.6509592">
    <ele>99</ele>
    <time>2017-01-27T16:36:23Z</time>
  </trkpt>
  <trkpt lat="48.0954636" lon="-1.6508663">
    <ele>100</ele>
    <time>2017-01-27T16:36:25Z</time>
  </trkpt>
  <trkpt lat="48.095401" lon="-1.6507762">
    <ele>101</ele>
    <time>2017-01-27T16:36:27Z</time>
  </trkpt>
  <trkpt lat="48.095288" lon="-1.6506295">
    <ele>103</ele>
    <time>2017-01-27T16:36:30Z</time>
  </trkpt>
  <trkpt lat="48.0952031" lon="-1.6505412">
    <ele>103</ele>
    <time>2017-01-27T16:36:32Z</time>
  </trkpt>
  <trkpt lat="48.0950865" lon="-1.6503903">
    <ele>104</ele>
    <time>2017-01-27T16:36:35Z</time>
  </trkpt>
  <trkpt lat="48.095" lon="-1.6502576">
    <ele>104</ele>
    <time>2017-01-27T16:36:38Z</time>
  </trkpt>
  <trkpt lat="48.0949024" lon="-1.6501252">
    <ele>102</ele>
    <time>2017-01-27T16:36:41Z</time>
  </trkpt>
  <trkpt lat="48.0947955" lon="-1.6499771">
    <ele>103</ele>
    <time>2017-01-27T16:36:44Z</time>
  </trkpt>
  <trkpt lat="48.0947219" lon="-1.6498754">
    <ele>104</ele>
    <time>2017-01-27T16:36:46Z</time>
  </trkpt>
  <trkpt lat="48.0946045" lon="-1.6497429">
    <ele>103</ele>
    <time>2017-01-27T16:36:49Z</time>
  </trkpt>
  <trkpt lat="48.094473" lon="-1.649601">
    <ele>102</ele>
    <time>2017-01-27T16:36:52Z</time>
  </trkpt>
  <trkpt lat="48.0943555" lon="-1.6494365">
    <ele>102</ele>
    <time>2017-01-27T16:36:55Z</time>
  </trkpt>
  <trkpt lat="48.0942873" lon="-1.6493354">
    <ele>103</ele>
    <time>2017-01-27T16:36:57Z</time>
  </trkpt>
  <trkpt lat="48.0942329" lon="-1.6492106">
    <ele>105</ele>
    <time>2017-01-27T16:36:59Z</time>
  </trkpt>
  <trkpt lat="48.0941085" lon="-1.6490451">
    <ele>105</ele>
    <time>2017-01-27T16:37:02Z</time>
  </trkpt>
  <trkpt lat="48.0940268" lon="-1.6489442">
    <ele>104</ele>
    <time>2017-01-27T16:37:04Z</time>
  </trkpt>
  <trkpt lat="48.093901" lon="-1.6487922">
    <ele>103</ele>
    <time>2017-01-27T16:37:07Z</time>
  </trkpt>
  <trkpt lat="48.0937752" lon="-1.6486452">
    <ele>103</ele>
    <time>2017-01-27T16:37:10Z</time>
  </trkpt>
  <trkpt lat="48.0936892" lon="-1.6485433">
    <ele>102</ele>
    <time>2017-01-27T16:37:12Z</time>
  </trkpt>
  <trkpt lat="48.0936109" lon="-1.648447">
    <ele>101</ele>
    <time>2017-01-27T16:37:14Z</time>
  </trkpt>
  <trkpt lat="48.0934869" lon="-1.6482911">
    <ele>102</ele>
    <time>2017-01-27T16:37:17Z</time>
  </trkpt>
  <trkpt lat="48.0933684" lon="-1.6481502">
    <ele>103</ele>
    <time>2017-01-27T16:37:20Z</time>
  </trkpt>
  <trkpt lat="48.0932995" lon="-1.6480631">
    <ele>105</ele>
    <time>2017-01-27T16:37:22Z</time>
  </trkpt>
  <trkpt lat="48.0932256" lon="-1.6479945">
    <ele>105</ele>
    <time>2017-01-27T16:37:24Z</time>
  </trkpt>
  <trkpt lat="48.093164" lon="-1.6478892">
    <ele>106</ele>
    <time>2017-01-27T16:37:27Z</time>
  </trkpt>
  <trkpt lat="48.0931394" lon="-1.6478583">
    <ele>107</ele>
    <time>2017-01-27T16:37:30Z</time>
  </trkpt>
  <trkpt lat="48.0931383" lon="-1.6478653">
    <ele>106</ele>
    <time>2017-01-27T16:37:32Z</time>
  </trkpt>
  <trkpt lat="48.0931411" lon="-1.6478652">
    <ele>105</ele>
    <time>2017-01-27T16:37:34Z</time>
  </trkpt>
  <trkpt lat="48.0931409" lon="-1.6478714">
    <ele>105</ele>
    <time>2017-01-27T16:37:37Z</time>
  </trkpt>
  <trkpt lat="48.0931363" lon="-1.6478711">
    <ele>104</ele>
    <time>2017-01-27T16:37:40Z</time>
  </trkpt>
  <trkpt lat="48.0931344" lon="-1.6478697">
    <ele>104</ele>
    <time>2017-01-27T16:37:43Z</time>
  </trkpt>
  <trkpt lat="48.0931358" lon="-1.647868">
    <ele>104</ele>
    <time>2017-01-27T16:37:45Z</time>
  </trkpt>
  <trkpt lat="48.0931059" lon="-1.6478468">
    <ele>103</ele>
    <time>2017-01-27T16:37:48Z</time>
  </trkpt>
  <trkpt lat="48.0930068" lon="-1.6477446">
    <ele>103</ele>
    <time>2017-01-27T16:37:51Z</time>
  </trkpt>
  <trkpt lat="48.0928862" lon="-1.6476219">
    <ele>101</ele>
    <time>2017-01-27T16:37:54Z</time>
  </trkpt>
  <trkpt lat="48.0927925" lon="-1.6475445">
    <ele>100</ele>
    <time>2017-01-27T16:37:56Z</time>
  </trkpt>
  <trkpt lat="48.0926644" lon="-1.6473908">
    <ele>100</ele>
    <time>2017-01-27T16:37:59Z</time>
  </trkpt>
  <trkpt lat="48.0925333" lon="-1.6472114">
    <ele>98</ele>
    <time>2017-01-27T16:38:02Z</time>
  </trkpt>
  <trkpt lat="48.0924212" lon="-1.6470308">
    <ele>97</ele>
    <time>2017-01-27T16:38:05Z</time>
  </trkpt>
  <trkpt lat="48.0923272" lon="-1.6469055">
    <ele>95</ele>
    <time>2017-01-27T16:38:07Z</time>
  </trkpt>
  <trkpt lat="48.0921982" lon="-1.6467242">
    <ele>94</ele>
    <time>2017-01-27T16:38:10Z</time>
  </trkpt>
  <trkpt lat="48.0920953" lon="-1.6466262">
    <ele>95</ele>
    <time>2017-01-27T16:38:12Z</time>
  </trkpt>
  <trkpt lat="48.0919736" lon="-1.6464552">
    <ele>95</ele>
    <time>2017-01-27T16:38:15Z</time>
  </trkpt>
  <trkpt lat="48.0918272" lon="-1.6463181">
    <ele>93</ele>
    <time>2017-01-27T16:38:18Z</time>
  </trkpt>
  <trkpt lat="48.091694" lon="-1.6461638">
    <ele>92</ele>
    <time>2017-01-27T16:38:21Z</time>
  </trkpt>
  <trkpt lat="48.0916073" lon="-1.6460988">
    <ele>91</ele>
    <time>2017-01-27T16:38:23Z</time>
  </trkpt>
  <trkpt lat="48.0915532" lon="-1.6459749">
    <ele>93</ele>
    <time>2017-01-27T16:38:25Z</time>
  </trkpt>
  <trkpt lat="48.0915131" lon="-1.6458589">
    <ele>95</ele>
    <time>2017-01-27T16:38:28Z</time>
  </trkpt>
  <trkpt lat="48.0915173" lon="-1.6458442">
    <ele>97</ele>
    <time>2017-01-27T16:38:30Z</time>
  </trkpt>
  <trkpt lat="48.0915148" lon="-1.6458424">
    <ele>98</ele>
    <time>2017-01-27T16:38:33Z</time>
  </trkpt>
  <trkpt lat="48.0915107" lon="-1.6458237">
    <ele>99</ele>
    <time>2017-01-27T16:38:36Z</time>
  </trkpt>
  <trkpt lat="48.0915128" lon="-1.6458303">
    <ele>100</ele>
    <time>2017-01-27T16:38:39Z</time>
  </trkpt>
  <trkpt lat="48.0915113" lon="-1.645831">
    <ele>101</ele>
    <time>2017-01-27T16:38:42Z</time>
  </trkpt>
  <trkpt lat="48.0915109" lon="-1.6458311">
    <ele>101</ele>
    <time>2017-01-27T16:38:44Z</time>
  </trkpt>
  <trkpt lat="48.0914862" lon="-1.645796">
    <ele>100</ele>
    <time>2017-01-27T16:38:47Z</time>
  </trkpt>
  <trkpt lat="48.0914008" lon="-1.6456948">
    <ele>99</ele>
    <time>2017-01-27T16:38:50Z</time>
  </trkpt>
  <trkpt lat="48.0913107" lon="-1.6456113">
    <ele>101</ele>
    <time>2017-01-27T16:38:52Z</time>
  </trkpt>
  <trkpt lat="48.0912172" lon="-1.6455289">
    <ele>102</ele>
    <time>2017-01-27T16:38:54Z</time>
  </trkpt>
  <trkpt lat="48.091065" lon="-1.6453929">
    <ele>101</ele>
    <time>2017-01-27T16:38:57Z</time>
  </trkpt>
  <trkpt lat="48.0909459" lon="-1.6452964">
    <ele>100</ele>
    <time>2017-01-27T16:38:59Z</time>
  </trkpt>
  <trkpt lat="48.0907747" lon="-1.645173">
    <ele>98</ele>
    <time>2017-01-27T16:39:02Z</time>
  </trkpt>
  <trkpt lat="48.0906477" lon="-1.645089">
    <ele>96</ele>
    <time>2017-01-27T16:39:04Z</time>
  </trkpt>
  <trkpt lat="48.090488" lon="-1.645004">
    <ele>91</ele>
    <time>2017-01-27T16:39:07Z</time>
  </trkpt>
  <trkpt lat="48.0903631" lon="-1.6449375">
    <ele>93</ele>
    <time>2017-01-27T16:39:09Z</time>
  </trkpt>
  <trkpt lat="48.090177" lon="-1.6448856">
    <ele>93</ele>
    <time>2017-01-27T16:39:12Z</time>
  </trkpt>
  <trkpt lat="48.0899783" lon="-1.6448145">
    <ele>94</ele>
    <time>2017-01-27T16:39:15Z</time>
  </trkpt>
  <trkpt lat="48.089772" lon="-1.644806">
    <ele>95</ele>
    <time>2017-01-27T16:39:18Z</time>
  </trkpt>
  <trkpt lat="48.0895656" lon="-1.6447775">
    <ele>97</ele>
    <time>2017-01-27T16:39:21Z</time>
  </trkpt>
  <trkpt lat="48.0893522" lon="-1.6447364">
    <ele>98</ele>
    <time>2017-01-27T16:39:24Z</time>
  </trkpt>
  <trkpt lat="48.0892133" lon="-1.6447299">
    <ele>97</ele>
    <time>2017-01-27T16:39:26Z</time>
  </trkpt>
  <trkpt lat="48.089002" lon="-1.6447287">
    <ele>98</ele>
    <time>2017-01-27T16:39:29Z</time>
  </trkpt>
  <trkpt lat="48.0887786" lon="-1.6447522">
    <ele>96</ele>
    <time>2017-01-27T16:39:32Z</time>
  </trkpt>
  <trkpt lat="48.0886306" lon="-1.6447439">
    <ele>97</ele>
    <time>2017-01-27T16:39:34Z</time>
  </trkpt>
  <trkpt lat="48.0884156" lon="-1.6447322">
    <ele>97</ele>
    <time>2017-01-27T16:39:37Z</time>
  </trkpt>
  <trkpt lat="48.0882709" lon="-1.6447239">
    <ele>100</ele>
    <time>2017-01-27T16:39:39Z</time>
  </trkpt>
  <trkpt lat="48.0880514" lon="-1.6446853">
    <ele>103</ele>
    <time>2017-01-27T16:39:42Z</time>
  </trkpt>
  <trkpt lat="48.0879316" lon="-1.6446797">
    <ele>101</ele>
    <time>2017-01-27T16:39:44Z</time>
  </trkpt>
  <trkpt lat="48.0878438" lon="-1.6446902">
    <ele>101</ele>
    <time>2017-01-27T16:39:46Z</time>
  </trkpt>
  <trkpt lat="48.0877727" lon="-1.6447216">
    <ele>100</ele>
    <time>2017-01-27T16:39:48Z</time>
  </trkpt>
  <trkpt lat="48.0877193" lon="-1.644776">
    <ele>102</ele>
    <time>2017-01-27T16:39:50Z</time>
  </trkpt>
  <trkpt lat="48.0876234" lon="-1.6448719">
    <ele>104</ele>
    <time>2017-01-27T16:39:53Z</time>
  </trkpt>
  <trkpt lat="48.0875568" lon="-1.6448808">
    <ele>104</ele>
    <time>2017-01-27T16:39:55Z</time>
  </trkpt>
  <trkpt lat="48.0873915" lon="-1.6447146">
    <ele>105</ele>
    <time>2017-01-27T16:39:58Z</time>
  </trkpt>
  <trkpt lat="48.087333" lon="-1.6445866">
    <ele>103</ele>
    <time>2017-01-27T16:40:00Z</time>
  </trkpt>
  <trkpt lat="48.087339" lon="-1.644441">
    <ele>100</ele>
    <time>2017-01-27T16:40:02Z</time>
  </trkpt>
  <trkpt lat="48.0873121" lon="-1.6442739">
    <ele>100</ele>
    <time>2017-01-27T16:40:05Z</time>
  </trkpt>
  <trkpt lat="48.0871912" lon="-1.644179">
    <ele>100</ele>
    <time>2017-01-27T16:40:08Z</time>
  </trkpt>
  <trkpt lat="48.0870941" lon="-1.644148">
    <ele>99</ele>
    <time>2017-01-27T16:40:10Z</time>
  </trkpt>
  <trkpt lat="48.0869927" lon="-1.6440894">
    <ele>97</ele>
    <time>2017-01-27T16:40:12Z</time>
  </trkpt>
  <trkpt lat="48.0868892" lon="-1.6440526">
    <ele>96</ele>
    <time>2017-01-27T16:40:14Z</time>
  </trkpt>
  <trkpt lat="48.0867511" lon="-1.6439992">
    <ele>94</ele>
    <time>2017-01-27T16:40:16Z</time>
  </trkpt>
  <trkpt lat="48.0865454" lon="-1.6439581">
    <ele>89</ele>
    <time>2017-01-27T16:40:19Z</time>
  </trkpt>
  <trkpt lat="48.0864158" lon="-1.6439157">
    <ele>91</ele>
    <time>2017-01-27T16:40:22Z</time>
  </trkpt>
  <trkpt lat="48.086264" lon="-1.64388">
    <ele>84</ele>
    <time>2017-01-27T16:40:25Z</time>
  </trkpt>
  <trkpt lat="48.0862276" lon="-1.6437961">
    <ele>86</ele>
    <time>2017-01-27T16:40:27Z</time>
  </trkpt>
  <trkpt lat="48.0862451" lon="-1.6436854">
    <ele>86</ele>
    <time>2017-01-27T16:40:29Z</time>
  </trkpt>
  <trkpt lat="48.0863034" lon="-1.6434867">
    <ele>82</ele>
    <time>2017-01-27T16:40:32Z</time>
  </trkpt>
  <trkpt lat="48.08636" lon="-1.6432731">
    <ele>84</ele>
    <time>2017-01-27T16:40:35Z</time>
  </trkpt>
  <trkpt lat="48.0864034" lon="-1.64313">
    <ele>85</ele>
    <time>2017-01-27T16:40:37Z</time>
  </trkpt>
  <trkpt lat="48.0864651" lon="-1.6429047">
    <ele>85</ele>
    <time>2017-01-27T16:40:40Z</time>
  </trkpt>
  <trkpt lat="48.086521" lon="-1.6426926">
    <ele>86</ele>
    <time>2017-01-27T16:40:43Z</time>
  </trkpt>
  <trkpt lat="48.0865236" lon="-1.6425456">
    <ele>85</ele>
    <time>2017-01-27T16:40:45Z</time>
  </trkpt>
  <trkpt lat="48.0864384" lon="-1.6424659">
    <ele>86</ele>
    <time>2017-01-27T16:40:47Z</time>
  </trkpt>
  <trkpt lat="48.0862669" lon="-1.642421">
    <ele>84</ele>
    <time>2017-01-27T16:40:50Z</time>
  </trkpt>
  <trkpt lat="48.086174" lon="-1.6423812">
    <ele>85</ele>
    <time>2017-01-27T16:40:52Z</time>
  </trkpt>
  <trkpt lat="48.0860335" lon="-1.6423001">
    <ele>87</ele>
    <time>2017-01-27T16:40:55Z</time>
  </trkpt>
  <trkpt lat="48.0860056" lon="-1.6421736">
    <ele>87</ele>
    <time>2017-01-27T16:40:57Z</time>
  </trkpt>
  <trkpt lat="48.0860033" lon="-1.6420246">
    <ele>87</ele>
    <time>2017-01-27T16:40:59Z</time>
  </trkpt>
  <trkpt lat="48.0860005" lon="-1.6419146">
    <ele>88</ele>
    <time>2017-01-27T16:41:02Z</time>
  </trkpt>
  <trkpt lat="48.0858604" lon="-1.6417647">
    <ele>86</ele>
    <time>2017-01-27T16:41:04Z</time>
  </trkpt>
  <trkpt lat="48.0857599" lon="-1.6417204">
    <ele>88</ele>
    <time>2017-01-27T16:41:06Z</time>
  </trkpt>
  <trkpt lat="48.0856893" lon="-1.6416615">
    <ele>86</ele>
    <time>2017-01-27T16:41:08Z</time>
  </trkpt>
  <trkpt lat="48.0855367" lon="-1.6415997">
    <ele>87</ele>
    <time>2017-01-27T16:41:11Z</time>
  </trkpt>
  <trkpt lat="48.0853918" lon="-1.6415231">
    <ele>87</ele>
    <time>2017-01-27T16:41:14Z</time>
  </trkpt>
  <trkpt lat="48.0852735" lon="-1.6414104">
    <ele>90</ele>
    <time>2017-01-27T16:41:17Z</time>
  </trkpt>
  <trkpt lat="48.0851888" lon="-1.641356">
    <ele>92</ele>
    <time>2017-01-27T16:41:19Z</time>
  </trkpt>
  <trkpt lat="48.0851214" lon="-1.6413102">
    <ele>90</ele>
    <time>2017-01-27T16:41:21Z</time>
  </trkpt>
  <trkpt lat="48.0850003" lon="-1.6412497">
    <ele>90</ele>
    <time>2017-01-27T16:41:24Z</time>
  </trkpt>
  <trkpt lat="48.0848771" lon="-1.6411395">
    <ele>86</ele>
    <time>2017-01-27T16:41:27Z</time>
  </trkpt>
  <trkpt lat="48.0847211" lon="-1.6409967">
    <ele>82</ele>
    <time>2017-01-27T16:41:30Z</time>
  </trkpt>
  <trkpt lat="48.084616" lon="-1.6408972">
    <ele>81</ele>
    <time>2017-01-27T16:41:32Z</time>
  </trkpt>
  <trkpt lat="48.0845293" lon="-1.6407822">
    <ele>82</ele>
    <time>2017-01-27T16:41:34Z</time>
  </trkpt>
  </trkseg>
</trk>
</gpx>
